%!PS-Adobe-3.0 EPSF-3.0
%%Creator: cairo 1.10.2 (http://cairographics.org)
%%CreationDate: Fri Aug 21 08:22:59 2015
%%Pages: 1
%%BoundingBox: 0 -1 412 328
%%DocumentData: Clean7Bit
%%LanguageLevel: 2
%%EndComments
%%BeginProlog
/cairo_eps_state save def
/dict_count countdictstack def
/op_count count 1 sub def
userdict begin
/q { gsave } bind def
/Q { grestore } bind def
/cm { 6 array astore concat } bind def
/w { setlinewidth } bind def
/J { setlinecap } bind def
/j { setlinejoin } bind def
/M { setmiterlimit } bind def
/d { setdash } bind def
/m { moveto } bind def
/l { lineto } bind def
/c { curveto } bind def
/h { closepath } bind def
/re { exch dup neg 3 1 roll 5 3 roll moveto 0 rlineto
      0 exch rlineto 0 rlineto closepath } bind def
/S { stroke } bind def
/f { fill } bind def
/f* { eofill } bind def
/n { newpath } bind def
/W { clip } bind def
/W* { eoclip } bind def
/BT { } bind def
/ET { } bind def
/pdfmark where { pop globaldict /?pdfmark /exec load put }
    { globaldict begin /?pdfmark /pop load def /pdfmark
    /cleartomark load def end } ifelse
/BDC { mark 3 1 roll /BDC pdfmark } bind def
/EMC { mark /EMC pdfmark } bind def
/cairo_store_point { /cairo_point_y exch def /cairo_point_x exch def } def
/Tj { show currentpoint cairo_store_point } bind def
/TJ {
  {
    dup
    type /stringtype eq
    { show } { -0.001 mul 0 cairo_font_matrix dtransform rmoveto } ifelse
  } forall
  currentpoint cairo_store_point
} bind def
/cairo_selectfont { cairo_font_matrix aload pop pop pop 0 0 6 array astore
    cairo_font exch selectfont cairo_point_x cairo_point_y moveto } bind def
/Tf { pop /cairo_font exch def /cairo_font_matrix where
      { pop cairo_selectfont } if } bind def
/Td { matrix translate cairo_font_matrix matrix concatmatrix dup
      /cairo_font_matrix exch def dup 4 get exch 5 get cairo_store_point
      /cairo_font where { pop cairo_selectfont } if } bind def
/Tm { 2 copy 8 2 roll 6 array astore /cairo_font_matrix exch def
      cairo_store_point /cairo_font where { pop cairo_selectfont } if } bind def
/g { setgray } bind def
/rg { setrgbcolor } bind def
/d1 { setcachedevice } bind def
%%EndProlog
%%Page: 1 1
%%BeginPageSetup
%%PageBoundingBox: 0 -1 412 328
%%EndPageSetup
q 0 -1 412 329 rectclip q
0 327.523 412 -328 re W n
0 g
32.812 159.679 m 33.977 155.953 36.773 153.152 40.27 151.523 c 43.766 
149.89 47.73 149.89 51.227 151.289 c 87.359 165.976 l 87.359 13.988 l 
87.359 6.292 93.652 -0.001 101.344 -0.001 c 308.812 -0.001 l 316.504 
-0.001 322.797 6.292 322.797 13.988 c 322.797 166.906 l 359.863 153.621 
l 367.09 151.054 375.016 154.785 377.812 162.011 c 410.215 251.757 l 
412.781 258.753 409.516 266.445 402.758 269.242 c 272.914 326.355 l 
266.387 329.152 258.695 326.82 255.195 320.527 c 254.965 320.292 
234.684 286.492 205.543 286.492 c 204.613 286.492 l 175.473 286.492 
156.125 320.058 155.891 320.292 c 152.395 326.585 144.703 329.152 
137.941 326.351 c 8.332 269.242 l 1.574 266.21 -1.691 258.749 0.875 
251.757 c h
138.645 296.285 m 149.367 282.062 171.977 258.753 204.613 258.753 c 
205.547 258.753 l 237.949 258.753 261.258 282.066 272.215 296.285 c 
379.445 249.195 l 356.133 184.624 l 313.477 199.777 l 309.281 201.41 
304.383 200.71 300.656 198.144 c 296.926 195.582 294.828 191.152 
294.828 186.722 c 294.828 27.972 l 115.332 27.972 l 115.332 186.722 l 
115.332 191.382 113 195.812 109.27 198.378 c 105.309 200.941 100.414 
201.406 96.215 199.777 c 54.488 182.992 l 31.414 248.96 l h
138.645 296.285 m f
Q Q
showpage
%%Trailer
count op_count sub {pop} repeat
countdictstack dict_count sub {end} repeat
cairo_eps_state restore
%%EOF
