%!PS-Adobe-3.0 EPSF-3.0
%%Creator: cairo 1.10.2 (http://cairographics.org)
%%CreationDate: Tue Jan 19 08:31:41 2016
%%Pages: 1
%%BoundingBox: 0 -1 178 184
%%DocumentData: Clean7Bit
%%LanguageLevel: 2
%%EndComments
%%BeginProlog
/cairo_eps_state save def
/dict_count countdictstack def
/op_count count 1 sub def
userdict begin
/q { gsave } bind def
/Q { grestore } bind def
/cm { 6 array astore concat } bind def
/w { setlinewidth } bind def
/J { setlinecap } bind def
/j { setlinejoin } bind def
/M { setmiterlimit } bind def
/d { setdash } bind def
/m { moveto } bind def
/l { lineto } bind def
/c { curveto } bind def
/h { closepath } bind def
/re { exch dup neg 3 1 roll 5 3 roll moveto 0 rlineto
      0 exch rlineto 0 rlineto closepath } bind def
/S { stroke } bind def
/f { fill } bind def
/f* { eofill } bind def
/n { newpath } bind def
/W { clip } bind def
/W* { eoclip } bind def
/BT { } bind def
/ET { } bind def
/pdfmark where { pop globaldict /?pdfmark /exec load put }
    { globaldict begin /?pdfmark /pop load def /pdfmark
    /cleartomark load def end } ifelse
/BDC { mark 3 1 roll /BDC pdfmark } bind def
/EMC { mark /EMC pdfmark } bind def
/cairo_store_point { /cairo_point_y exch def /cairo_point_x exch def } def
/Tj { show currentpoint cairo_store_point } bind def
/TJ {
  {
    dup
    type /stringtype eq
    { show } { -0.001 mul 0 cairo_font_matrix dtransform rmoveto } ifelse
  } forall
  currentpoint cairo_store_point
} bind def
/cairo_selectfont { cairo_font_matrix aload pop pop pop 0 0 6 array astore
    cairo_font exch selectfont cairo_point_x cairo_point_y moveto } bind def
/Tf { pop /cairo_font exch def /cairo_font_matrix where
      { pop cairo_selectfont } if } bind def
/Td { matrix translate cairo_font_matrix matrix concatmatrix dup
      /cairo_font_matrix exch def dup 4 get exch 5 get cairo_store_point
      /cairo_font where { pop cairo_selectfont } if } bind def
/Tm { 2 copy 8 2 roll 6 array astore /cairo_font_matrix exch def
      cairo_store_point /cairo_font where { pop cairo_selectfont } if } bind def
/g { setgray } bind def
/rg { setrgbcolor } bind def
/d1 { setcachedevice } bind def
%%EndProlog
%%Page: 1 1
%%BeginPageSetup
%%PageBoundingBox: 0 -1 178 184
%%EndPageSetup
q 0 -1 178 185 rectclip q
0 183.043 178 -184 re W n
0 g
144.566 54.09 m 142.672 57.078 128.785 78.707 116.918 90.145 c 107.016 
99.653 92.199 99.93 90.52 99.93 c 90.367 99.926 90.211 99.922 90.062 
99.91 c 86.469 99.91 l 84.883 99.91 70.66 99.641 60.258 90.278 c 47.426 
78.711 33.223 55.383 32.23 53.739 c 24.707 41.844 20.098 34.11 20.098 
25.512 c 20.098 10.012 31.453 0 49.023 0 c 127.992 0 l 145.559 0 156.91 
10.024 156.91 25.535 c 156.91 34.211 152.289 41.938 144.746 53.817 c 
144.688 53.91 144.629 54.004 144.566 54.09 c h
127.992 12 m 49.023 12 l 42.703 12 32.098 13.754 32.098 25.512 c 32.098 
30.535 35.398 36.301 42.406 47.379 c 42.43 47.414 42.453 47.453 42.477 
47.489 c 42.617 47.723 56.582 70.805 68.289 81.36 c 75.43 87.785 86.367 
87.906 86.473 87.91 c 90.539 87.91 l 90.652 87.91 90.766 87.91 90.879 
87.918 c 92.832 87.844 102.668 87.192 108.602 81.5 c 120.027 70.481 
134.457 47.621 134.605 47.391 c 134.668 47.289 134.734 47.188 134.805 
47.09 c 142.258 35.332 144.914 30.278 144.914 25.539 c 144.91 14.348 
135.711 12 127.992 12 c h
127.992 12 m f
59.543 114.457 m 73.086 114.457 83.695 129.524 83.695 148.754 c 83.695 
167.981 73.086 183.043 59.543 183.043 c 46 183.043 35.395 167.981 
35.395 148.754 c 35.395 129.524 46 114.457 59.543 114.457 c h
59.543 171.043 m 65.289 171.043 71.695 161.891 71.695 148.754 c 71.695 
135.614 65.289 126.457 59.543 126.457 c 53.797 126.457 47.391 135.614 
47.391 148.754 c 47.395 161.891 53.797 171.043 59.543 171.043 c h
59.543 171.043 m f
27.914 73.207 m 30.277 73.207 32.531 73.692 34.645 74.664 c 45.176 
79.559 48.109 94.922 41.316 109.649 c 36.051 121.047 26.305 128.707 
17.066 128.707 c 14.703 128.707 12.445 128.223 10.344 127.254 c -0.199 
122.375 -3.141 107.008 3.648 92.258 c 8.918 80.864 18.668 73.207 27.914 
73.207 c h
14.547 97.285 m 10.484 106.106 11.637 114.633 15.371 116.36 c 15.883 
116.594 16.438 116.707 17.066 116.707 c 20.832 116.707 26.793 112.469 
30.422 104.617 c 34.484 95.813 33.328 87.285 29.613 85.555 c 29.102 
85.321 28.543 85.207 27.914 85.207 c 24.141 85.207 18.172 89.442 14.547 
97.285 c h
14.547 97.285 m f
117.457 114.457 m 130.996 114.457 141.602 129.524 141.602 148.754 c 
141.602 167.981 130.996 183.043 117.457 183.043 c 103.906 183.043 
93.293 167.981 93.293 148.754 c 93.293 129.524 103.906 114.457 117.457 
114.457 c h
117.457 171.043 m 123.203 171.043 129.602 161.891 129.602 148.754 c 
129.602 135.614 123.203 126.457 117.457 126.457 c 111.703 126.457 
105.293 135.614 105.293 148.754 c 105.293 161.891 111.703 171.043 
117.457 171.043 c h
117.457 171.043 m f
166.668 127.254 m 164.574 128.223 162.309 128.715 159.938 128.715 c 
150.715 128.715 140.973 121.051 135.699 109.653 c 128.879 94.938 
131.809 79.567 142.395 74.649 c 144.48 73.692 146.738 73.207 149.098 
73.207 c 158.344 73.207 168.094 80.864 173.355 92.262 c 180.152 107 
177.215 122.371 166.668 127.254 c h
162.461 97.289 m 158.836 89.442 152.871 85.207 149.098 85.207 c 148.469 
85.207 147.914 85.321 147.422 85.543 c 143.668 87.289 142.512 95.813 
146.59 104.614 c 150.223 112.473 156.18 116.715 159.938 116.715 c 
160.562 116.715 161.113 116.602 161.625 116.367 c 165.371 114.629 
166.523 106.102 162.461 97.289 c h
162.461 97.289 m f
Q Q
showpage
%%Trailer
count op_count sub {pop} repeat
countdictstack dict_count sub {end} repeat
cairo_eps_state restore
%%EOF
