%!PS-Adobe-3.0 EPSF-3.0
%%CreationDate: Mon May  4 15:34:55 2020
%%LanguageLevel: 3
%%BoundingBox: 0 0 1154 1154
%%EndComments
newpath
547.27 1152.67 moveto
573.48 1153.64 599.78 1153.62 625.92 1151.34 curveto
711.45 1144.30 795.26 1117.58 869.14 1073.94 curveto
964.78 1017.73 1043.57 933.33 1092.94 833.98 curveto
1134.18 751.60 1154.91 659.13 1153.06 567.04 curveto
1151.88 481.08 1130.93 395.47 1092.27 318.68 curveto
1057.37 249.01 1008.08 186.64 948.54 136.39 curveto
887.38 84.66 815.32 45.86 738.39 23.51 curveto
644.75 -3.83 544.18 -6.62 449.05 14.75 curveto
355.19 35.89 266.97 81.26 195.01 145.10 curveto
144.43 189.74 101.79 243.37 69.66 302.70 curveto
27.67 380.00 3.89 467.09 0.85 555.00 curveto
-0.81 599.19 2.45 643.58 10.85 687.00 curveto
25.77 764.61 57.06 838.99 101.99 904.00 curveto
128.73 942.76 160.20 978.26 195.54 1009.38 curveto
255.81 1062.65 327.35 1103.13 404.13 1127.14 curveto
450.50 1141.70 498.73 1150.24 547.27 1152.67 curveto
374.17 795.29 moveto
365.45 793.43 358.16 786.14 356.27 777.43 curveto
355.38 774.02 355.75 770.47 355.69 766.98 curveto
355.69 639.99 355.70 512.99 355.69 385.99 curveto
355.63 373.60 366.74 362.76 379.08 362.74 curveto
448.33 362.65 517.59 362.68 586.84 362.73 curveto
586.87 418.62 586.82 474.52 586.87 530.41 curveto
568.05 530.42 549.24 530.41 530.42 530.42 curveto
530.47 552.22 530.47 574.03 530.43 595.84 curveto
549.21 595.87 568.00 595.85 586.79 595.84 curveto
587.24 615.88 586.13 635.96 587.46 655.96 curveto
589.06 674.60 595.73 693.39 608.91 707.01 curveto
619.96 718.70 635.13 725.93 650.83 728.84 curveto
662.39 731.21 674.25 730.73 685.98 730.50 curveto
697.83 730.14 709.66 729.25 721.48 728.22 curveto
721.73 708.63 721.54 689.03 721.57 669.43 curveto
712.05 669.41 702.52 669.43 693.00 669.42 curveto
683.30 669.51 672.76 669.60 664.35 664.03 curveto
656.93 658.97 654.96 649.43 654.70 641.02 curveto
654.37 625.96 654.63 610.90 654.56 595.84 curveto
676.19 595.87 697.82 595.84 719.46 595.86 curveto
716.53 574.09 713.70 552.30 711.10 530.49 curveto
692.24 530.33 673.38 530.44 654.52 530.43 curveto
654.58 474.53 654.55 418.62 654.54 362.72 curveto
690.68 362.65 726.82 362.72 762.97 362.69 curveto
768.54 362.58 774.28 363.93 778.84 367.24 curveto
785.11 371.70 788.86 379.26 788.81 386.94 curveto
788.84 513.29 788.81 639.64 788.82 765.99 curveto
788.82 769.77 789.00 773.60 788.16 777.32 curveto
786.36 785.81 779.45 792.96 771.04 795.08 curveto
767.46 796.14 763.71 795.78 760.05 795.82 curveto
635.03 795.82 510.01 795.82 385.00 795.82 curveto
381.39 795.75 377.72 796.14 374.17 795.29 curveto
closepath
0.102 0.129 0.173 setrgbcolor
fill
newpath
374.17 795.29 moveto
377.72 796.14 381.39 795.75 385.00 795.82 curveto
510.01 795.82 635.03 795.82 760.05 795.82 curveto
763.71 795.78 767.46 796.14 771.04 795.08 curveto
779.45 792.96 786.36 785.81 788.16 777.32 curveto
789.00 773.60 788.82 769.77 788.82 765.99 curveto
788.81 639.64 788.84 513.29 788.81 386.94 curveto
788.86 379.26 785.11 371.70 778.84 367.24 curveto
774.28 363.93 768.54 362.58 762.97 362.69 curveto
726.82 362.72 690.68 362.65 654.54 362.72 curveto
654.55 418.62 654.58 474.53 654.52 530.43 curveto
673.38 530.44 692.24 530.33 711.10 530.49 curveto
713.70 552.30 716.53 574.09 719.46 595.86 curveto
697.82 595.84 676.19 595.87 654.56 595.84 curveto
654.63 610.90 654.37 625.96 654.70 641.02 curveto
654.96 649.43 656.93 658.97 664.35 664.03 curveto
672.76 669.60 683.30 669.51 693.00 669.42 curveto
702.52 669.43 712.05 669.41 721.57 669.43 curveto
721.54 689.03 721.73 708.63 721.48 728.22 curveto
709.66 729.25 697.83 730.14 685.98 730.50 curveto
674.25 730.73 662.39 731.21 650.83 728.84 curveto
635.13 725.93 619.96 718.70 608.91 707.01 curveto
595.73 693.39 589.06 674.60 587.46 655.96 curveto
586.13 635.96 587.24 615.88 586.79 595.84 curveto
568.00 595.85 549.21 595.87 530.43 595.84 curveto
530.47 574.03 530.47 552.22 530.42 530.42 curveto
549.24 530.41 568.05 530.42 586.87 530.41 curveto
586.82 474.52 586.87 418.62 586.84 362.73 curveto
517.59 362.68 448.33 362.65 379.08 362.74 curveto
366.74 362.76 355.63 373.60 355.69 385.99 curveto
355.70 512.99 355.69 639.99 355.69 766.98 curveto
355.75 770.47 355.38 774.02 356.27 777.43 curveto
358.16 786.14 365.45 793.43 374.17 795.29 curveto
closepath
1.000 1.000 1.000 setrgbcolor
fill
%%EOF
