%!PS-Adobe-3.0 EPSF-3.0
%%CreationDate: Mon May  4 15:35:43 2020
%%LanguageLevel: 3
%%BoundingBox: 0 0 1154 1154
%%EndComments
newpath
542.45 1152.41 moveto
592.74 1155.18 643.42 1152.00 692.78 1141.85 curveto
775.76 1125.02 854.81 1089.39 922.50 1038.56 curveto
1003.28 978.13 1067.82 896.19 1107.37 803.35 curveto
1124.66 762.81 1137.31 720.29 1144.85 676.86 curveto
1153.19 629.51 1155.18 581.12 1151.79 533.19 curveto
1145.47 446.65 1119.05 361.66 1075.22 286.77 curveto
1036.33 220.00 983.80 161.27 921.93 115.01 curveto
855.22 65.05 777.53 29.84 695.94 12.80 curveto
597.97 -7.59 494.65 -2.52 399.40 28.39 curveto
310.72 56.95 229.37 107.67 164.37 174.37 curveto
114.90 225.04 74.80 284.87 46.93 349.97 curveto
28.90 392.09 15.87 436.36 8.40 481.57 curveto
0.71 527.26 -1.04 573.88 2.15 620.07 curveto
7.08 688.58 24.56 756.14 53.36 818.48 curveto
80.75 877.77 118.28 932.37 163.91 979.11 curveto
207.27 1023.75 257.94 1061.28 313.28 1089.77 curveto
384.16 1126.37 462.80 1147.86 542.45 1152.41 curveto
566.94 813.88 moveto
520.90 813.40 475.81 796.28 439.18 768.75 curveto
413.15 749.28 391.02 724.59 374.60 696.52 curveto
353.64 660.91 342.08 619.42 343.78 578.01 curveto
342.62 505.96 379.10 435.54 435.84 391.82 curveto
488.01 350.78 558.24 335.64 623.20 346.89 curveto
657.38 352.75 690.56 365.82 718.57 386.43 curveto
739.11 401.35 756.34 420.56 770.03 441.88 curveto
786.02 467.32 796.01 496.21 801.07 525.74 curveto
805.91 554.23 807.11 583.37 804.59 612.16 curveto
729.49 612.56 654.38 612.38 579.29 612.32 curveto
579.60 585.74 578.82 559.14 579.70 532.57 curveto
592.45 531.83 605.23 531.85 618.00 531.62 curveto
641.62 531.71 665.22 531.27 688.84 531.39 curveto
697.43 530.22 706.12 531.20 714.74 530.52 curveto
711.20 518.51 706.44 506.78 700.12 495.95 curveto
686.51 471.62 665.12 450.85 638.56 441.40 curveto
625.42 435.55 611.33 431.95 597.03 430.51 curveto
587.68 430.06 578.31 430.06 568.97 430.51 curveto
553.56 432.11 538.32 435.84 524.06 441.94 curveto
487.89 457.03 457.13 486.46 443.53 523.54 curveto
440.59 532.42 437.08 541.16 435.37 550.38 curveto
428.60 582.83 434.08 617.35 449.14 646.75 curveto
465.32 678.69 492.84 705.32 526.51 718.11 curveto
539.60 722.80 553.05 727.24 567.07 727.79 curveto
574.69 729.14 582.36 728.00 589.99 727.48 curveto
610.97 725.19 631.20 718.33 650.15 709.22 curveto
659.45 705.14 667.93 699.48 677.04 695.04 curveto
681.44 698.20 685.07 702.25 688.98 705.96 curveto
703.85 720.46 717.94 735.71 732.02 750.95 curveto
733.36 752.72 736.24 754.19 735.38 756.77 curveto
730.80 761.16 725.41 764.61 720.38 768.46 curveto
676.36 800.19 621.49 818.88 566.94 813.88 curveto
closepath
0.102 0.129 0.173 setrgbcolor
fill
newpath
566.94 813.88 moveto
621.49 818.88 676.36 800.19 720.38 768.46 curveto
725.41 764.61 730.80 761.16 735.38 756.77 curveto
736.24 754.19 733.36 752.72 732.02 750.95 curveto
717.94 735.71 703.85 720.46 688.98 705.96 curveto
685.07 702.25 681.44 698.20 677.04 695.04 curveto
667.93 699.48 659.45 705.14 650.15 709.22 curveto
631.20 718.33 610.97 725.19 589.99 727.48 curveto
582.36 728.00 574.69 729.14 567.07 727.79 curveto
553.05 727.24 539.60 722.80 526.51 718.11 curveto
492.84 705.32 465.32 678.69 449.14 646.75 curveto
434.08 617.35 428.60 582.83 435.37 550.38 curveto
437.08 541.16 440.59 532.42 443.53 523.54 curveto
457.13 486.46 487.89 457.03 524.06 441.94 curveto
538.32 435.84 553.56 432.11 568.97 430.51 curveto
578.31 430.06 587.68 430.06 597.03 430.51 curveto
611.33 431.95 625.42 435.55 638.56 441.40 curveto
665.12 450.85 686.51 471.62 700.12 495.95 curveto
706.44 506.78 711.20 518.51 714.74 530.52 curveto
706.12 531.20 697.43 530.22 688.84 531.39 curveto
665.22 531.27 641.62 531.71 618.00 531.62 curveto
605.23 531.85 592.45 531.83 579.70 532.57 curveto
578.82 559.14 579.60 585.74 579.29 612.32 curveto
654.38 612.38 729.49 612.56 804.59 612.16 curveto
807.11 583.37 805.91 554.23 801.07 525.74 curveto
796.01 496.21 786.02 467.32 770.03 441.88 curveto
756.34 420.56 739.11 401.35 718.57 386.43 curveto
690.56 365.82 657.38 352.75 623.20 346.89 curveto
558.24 335.64 488.01 350.78 435.84 391.82 curveto
379.10 435.54 342.62 505.96 343.78 578.01 curveto
342.08 619.42 353.64 660.91 374.60 696.52 curveto
391.02 724.59 413.15 749.28 439.18 768.75 curveto
475.81 796.28 520.90 813.40 566.94 813.88 curveto
closepath
1.000 1.000 1.000 setrgbcolor
fill
%%EOF
