%!PS-Adobe-3.0 EPSF-3.0
%%CreationDate: Mon May  4 15:37:07 2020
%%LanguageLevel: 3
%%BoundingBox: 0 0 1153 1154
%%EndComments
newpath
428.65 1134.32 moveto
484.73 1149.27 543.07 1155.24 601.02 1152.89 curveto
684.20 1149.65 766.58 1127.91 840.51 1089.66 curveto
904.69 1056.62 962.52 1011.33 1010.10 957.06 curveto
1066.40 893.03 1108.22 816.34 1131.37 734.28 curveto
1144.95 686.55 1151.99 637.04 1153.00 587.44 curveto
1153.00 566.56 lineto
1151.55 486.57 1133.54 406.86 1099.69 334.32 curveto
1068.14 266.36 1023.14 204.70 968.13 153.84 curveto
913.04 102.77 847.88 62.62 777.46 36.46 curveto
647.29 -12.12 499.43 -11.37 369.81 38.71 curveto
267.95 77.67 177.86 146.45 113.09 234.15 curveto
68.14 294.69 35.30 364.18 17.14 437.37 curveto
-7.44 536.53 -5.34 642.25 23.56 740.25 curveto
42.65 805.23 73.46 866.71 113.94 921.00 curveto
146.72 965.03 185.80 1004.31 229.57 1037.42 curveto
288.84 1082.18 356.83 1115.35 428.65 1134.32 curveto
597.26 760.73 moveto
581.80 743.87 572.03 721.95 569.66 699.20 curveto
568.71 687.23 569.24 675.13 571.79 663.37 curveto
524.42 665.54 477.62 679.06 436.33 702.37 curveto
402.88 721.14 373.07 746.28 348.71 775.90 curveto
345.88 772.29 344.23 767.97 342.39 763.82 curveto
330.44 735.66 331.36 702.37 344.83 674.91 curveto
351.68 660.65 361.91 648.16 374.10 638.13 curveto
376.45 636.23 379.10 634.64 381.06 632.29 curveto
364.29 632.08 347.95 637.58 333.13 645.08 curveto
333.02 632.35 335.17 619.59 339.52 607.62 curveto
351.63 573.27 382.31 546.22 417.99 538.76 curveto
417.90 538.40 417.70 537.70 417.61 537.34 curveto
402.54 533.55 386.72 533.47 371.43 535.85 curveto
379.19 510.45 397.50 488.70 420.44 475.52 curveto
435.99 466.41 453.90 461.93 471.82 461.06 curveto
470.55 459.67 469.09 458.47 467.55 457.39 curveto
452.07 446.01 435.12 436.59 417.22 429.62 curveto
384.83 416.81 349.38 412.47 314.78 415.67 curveto
315.17 414.79 315.76 414.06 316.55 413.51 curveto
352.18 391.50 392.37 376.95 433.81 370.94 curveto
506.58 360.82 583.65 375.07 645.55 415.47 curveto
669.68 430.99 691.29 450.30 709.94 472.06 curveto
754.25 524.12 781.19 590.70 785.46 658.93 curveto
786.04 669.24 785.56 679.56 785.78 689.87 curveto
803.74 702.75 819.67 718.42 832.87 736.13 curveto
834.77 738.80 837.09 741.27 838.16 744.44 curveto
819.08 736.85 799.20 730.65 778.68 728.76 curveto
779.57 729.71 780.51 730.65 781.61 731.38 curveto
798.65 742.54 812.38 758.68 820.74 777.25 curveto
822.16 780.43 823.65 783.65 824.11 787.14 curveto
819.59 785.41 815.60 782.61 811.21 780.60 curveto
793.82 772.11 775.38 765.39 756.28 762.12 curveto
739.92 779.23 718.09 791.15 694.62 794.77 curveto
659.17 800.87 621.21 787.55 597.26 760.73 curveto
closepath
0.102 0.129 0.173 setrgbcolor
fill
newpath
597.26 760.73 moveto
621.21 787.55 659.17 800.87 694.62 794.77 curveto
718.09 791.15 739.92 779.23 756.28 762.12 curveto
775.38 765.39 793.82 772.11 811.21 780.60 curveto
815.60 782.61 819.59 785.41 824.11 787.14 curveto
823.65 783.65 822.16 780.43 820.74 777.25 curveto
812.38 758.68 798.65 742.54 781.61 731.38 curveto
780.51 730.65 779.57 729.71 778.68 728.76 curveto
799.20 730.65 819.08 736.85 838.16 744.44 curveto
837.09 741.27 834.77 738.80 832.87 736.13 curveto
819.67 718.42 803.74 702.75 785.78 689.87 curveto
785.56 679.56 786.04 669.24 785.46 658.93 curveto
781.19 590.70 754.25 524.12 709.94 472.06 curveto
691.29 450.30 669.68 430.99 645.55 415.47 curveto
583.65 375.07 506.58 360.82 433.81 370.94 curveto
392.37 376.95 352.18 391.50 316.55 413.51 curveto
315.76 414.06 315.17 414.79 314.78 415.67 curveto
349.38 412.47 384.83 416.81 417.22 429.62 curveto
435.12 436.59 452.07 446.01 467.55 457.39 curveto
469.09 458.47 470.55 459.67 471.82 461.06 curveto
453.90 461.93 435.99 466.41 420.44 475.52 curveto
397.50 488.70 379.19 510.45 371.43 535.85 curveto
386.72 533.47 402.54 533.55 417.61 537.34 curveto
417.70 537.70 417.90 538.40 417.99 538.76 curveto
382.31 546.22 351.63 573.27 339.52 607.62 curveto
335.17 619.59 333.02 632.35 333.13 645.08 curveto
347.95 637.58 364.29 632.08 381.06 632.29 curveto
379.10 634.64 376.45 636.23 374.10 638.13 curveto
361.91 648.16 351.68 660.65 344.83 674.91 curveto
331.36 702.37 330.44 735.66 342.39 763.82 curveto
344.23 767.97 345.88 772.29 348.71 775.90 curveto
373.07 746.28 402.88 721.14 436.33 702.37 curveto
477.62 679.06 524.42 665.54 571.79 663.37 curveto
569.24 675.13 568.71 687.23 569.66 699.20 curveto
572.03 721.95 581.80 743.87 597.26 760.73 curveto
closepath
1.000 1.000 1.000 setrgbcolor
fill
%%EOF
