%!PS-Adobe-3.0 EPSF-3.0
%%CreationDate: Mon Nov  6 10:05:15 2017
%%LanguageLevel: 3
%%BoundingBox: 0 0 320 313
%%EndComments
newpath
161.41 145.91 moveto
163.73 145.91 166.04 145.90 168.36 145.89 curveto
168.36 144.38 168.37 142.87 168.38 141.36 curveto
174.59 140.84 179.89 135.61 179.95 129.28 curveto
177.74 129.25 175.53 129.23 173.33 129.21 curveto
172.57 131.61 171.02 134.45 168.07 134.23 curveto
164.67 133.97 160.23 135.44 157.84 132.22 curveto
155.58 129.42 157.41 124.58 161.01 124.08 curveto
165.58 123.77 170.72 124.72 174.66 121.77 curveto
179.77 118.40 181.45 110.97 178.24 105.75 curveto
176.29 102.11 172.31 100.13 168.35 99.59 curveto
168.35 98.09 168.36 96.59 168.37 95.08 curveto
166.05 95.07 163.73 95.07 161.41 95.07 curveto
161.43 96.57 161.45 98.05 161.47 99.54 curveto
155.26 100.17 149.87 105.33 149.88 111.74 curveto
152.14 111.75 154.40 111.76 156.66 111.77 curveto
157.12 109.21 159.04 106.39 161.98 106.76 curveto
165.48 106.96 170.57 105.51 172.41 109.53 curveto
174.34 112.63 171.56 117.00 168.04 116.98 curveto
163.71 117.11 158.86 116.41 155.17 119.19 curveto
150.03 122.61 148.33 130.17 151.69 135.39 curveto
153.62 138.96 157.55 140.84 161.44 141.39 curveto
161.43 142.90 161.42 144.40 161.41 145.91 curveto
closepath
1.000 1.000 1.000 setrgbcolor
fill
newpath
177.27 301.45 moveto
182.57 303.68 188.99 300.48 190.33 294.89 curveto
192.34 288.66 186.07 282.19 179.83 283.20 curveto
176.15 283.69 172.39 286.21 171.70 290.07 curveto
170.44 294.44 172.85 299.95 177.27 301.45 curveto
157.13 240.07 moveto
165.22 243.98 175.74 242.62 182.22 236.25 curveto
188.79 230.42 191.11 220.61 188.39 212.33 curveto
185.47 203.80 177.14 197.42 168.08 197.12 curveto
158.23 196.27 148.67 203.08 145.58 212.33 curveto
141.84 222.80 147.07 235.37 157.13 240.07 curveto
45.76 217.33 moveto
58.61 217.37 70.68 208.61 74.84 196.50 curveto
68.23 191.92 62.17 186.55 56.89 180.48 curveto
53.17 180.41 49.44 180.44 45.72 180.43 curveto
45.84 192.73 45.77 205.03 45.76 217.33 curveto
91.37 205.26 moveto
91.38 209.30 91.38 213.34 91.37 217.38 curveto
98.23 217.16 105.03 214.92 110.41 210.60 curveto
115.86 206.17 120.06 200.05 121.38 193.08 curveto
122.25 188.93 122.01 184.65 122.00 180.43 curveto
111.76 180.37 101.52 180.56 91.29 180.33 curveto
91.47 188.64 91.34 196.95 91.37 205.26 curveto
62.22 147.81 moveto
63.82 149.02 66.53 148.62 67.38 146.70 curveto
68.07 144.37 68.07 141.71 69.78 139.80 curveto
72.59 135.90 78.71 135.67 82.08 139.00 curveto
85.01 141.22 83.81 145.64 86.26 148.11 curveto
88.17 148.95 90.40 148.36 91.54 146.59 curveto
92.58 139.37 87.30 131.54 80.03 130.17 curveto
72.08 127.79 62.83 133.39 61.34 141.58 curveto
60.99 143.58 59.99 146.57 62.22 147.81 curveto
212.87 29.10 moveto
222.11 30.17 231.24 32.33 239.77 36.07 curveto
239.67 32.09 239.92 28.08 239.58 24.10 curveto
238.96 16.36 231.61 10.19 224.01 10.03 curveto
218.51 9.76 213.36 12.93 209.98 17.07 curveto
212.43 20.58 213.00 24.92 212.87 29.10 curveto
122.57 28.69 moveto
131.32 28.35 140.08 28.48 148.83 28.60 curveto
149.26 28.12 lineto
150.66 19.59 143.70 11.04 135.20 10.18 curveto
129.20 9.29 123.13 12.30 119.71 17.21 curveto
121.88 20.63 122.67 24.67 122.57 28.69 curveto
closepath
0.141 0.176 0.235 setrgbcolor
fill
newpath
133.28 284.60 moveto
138.01 286.99 143.75 281.35 141.54 276.57 curveto
140.16 271.76 132.74 271.03 130.35 275.36 curveto
128.18 278.47 129.64 283.39 133.28 284.60 curveto
111.26 259.60 moveto
118.75 262.76 128.20 257.97 129.89 249.98 curveto
132.15 242.17 126.13 233.33 118.01 232.68 curveto
111.29 231.70 104.42 236.42 102.89 243.02 curveto
101.03 249.63 104.81 257.20 111.26 259.60 curveto
208.34 245.57 moveto
214.93 248.37 222.75 242.06 221.35 235.02 curveto
220.66 227.62 210.49 223.98 205.31 229.30 curveto
199.87 233.74 201.79 243.31 208.34 245.57 curveto
closepath
0.800 0.796 0.792 setrgbcolor
fill
newpath
110.41 210.60 moveto
121.88 213.40 133.88 212.45 145.58 212.33 curveto
148.67 203.08 158.23 196.27 168.08 197.12 curveto
177.14 197.42 185.47 203.80 188.39 212.33 curveto
199.49 212.81 210.71 212.68 221.65 210.55 curveto
243.27 206.39 262.93 193.64 276.30 176.25 curveto
286.52 163.08 292.70 147.05 294.72 130.55 curveto
299.95 130.69 306.70 131.10 309.55 125.64 curveto
310.34 122.33 310.34 118.66 309.55 115.35 curveto
306.81 109.93 300.06 110.22 294.88 110.09 curveto
293.88 106.23 293.51 102.24 292.51 98.38 curveto
285.84 70.92 265.67 47.29 239.77 36.07 curveto
231.24 32.33 222.11 30.17 212.87 29.10 curveto
213.00 24.92 212.43 20.58 209.98 17.07 curveto
204.87 9.27 192.90 7.55 185.98 13.90 curveto
181.58 17.35 180.21 23.05 179.96 28.38 curveto
169.59 28.74 159.20 28.29 148.83 28.60 curveto
140.08 28.48 131.32 28.35 122.57 28.69 curveto
122.67 24.67 121.88 20.63 119.71 17.21 curveto
117.09 13.33 112.61 10.80 108.02 10.13 curveto
101.71 9.22 95.45 12.83 92.09 18.04 curveto
88.97 23.49 90.35 30.00 89.94 35.96 curveto
72.74 43.88 57.64 56.63 47.86 72.93 curveto
43.35 80.02 40.46 87.95 37.74 95.86 curveto
28.64 96.16 19.53 95.61 10.44 96.12 curveto
10.42 112.36 10.43 128.61 10.43 144.86 curveto
19.52 145.36 28.63 144.76 37.72 145.13 curveto
41.73 158.01 47.96 170.29 56.89 180.48 curveto
62.17 186.55 68.23 191.92 74.84 196.50 curveto
80.00 200.00 85.41 203.29 91.37 205.26 curveto
91.34 196.95 91.47 188.64 91.29 180.33 curveto
101.52 180.56 111.76 180.37 122.00 180.43 curveto
122.01 184.65 122.25 188.93 121.38 193.08 curveto
120.06 200.05 115.86 206.17 110.41 210.60 curveto
157.53 163.24 moveto
148.91 161.77 140.82 157.55 134.55 151.47 curveto
126.22 143.30 121.38 131.70 121.58 120.02 curveto
121.63 106.76 128.20 93.70 138.86 85.82 curveto
147.12 79.56 157.68 76.44 168.01 77.23 curveto
180.37 78.05 192.28 84.49 199.59 94.50 curveto
205.90 102.87 208.99 113.57 208.09 124.01 curveto
207.14 136.63 200.30 148.70 189.90 155.91 curveto
180.66 162.55 168.73 165.18 157.53 163.24 curveto
62.22 147.81 moveto
59.99 146.57 60.99 143.58 61.34 141.58 curveto
62.83 133.39 72.08 127.79 80.03 130.17 curveto
87.30 131.54 92.58 139.37 91.54 146.59 curveto
90.40 148.36 88.17 148.95 86.26 148.11 curveto
83.81 145.64 85.01 141.22 82.08 139.00 curveto
78.71 135.67 72.59 135.90 69.78 139.80 curveto
68.07 141.71 68.07 144.37 67.38 146.70 curveto
66.53 148.62 63.82 149.02 62.22 147.81 curveto
closepath
0.902 0.898 0.898 setrgbcolor
fill
closepath
0.086 0.776 0.800 setrgbcolor
fill
%%EOF
