%!PS-Adobe-3.0 EPSF-3.0
%%CreationDate: Mon Nov  6 12:56:43 2017
%%LanguageLevel: 3
%%BoundingBox: 0 0 768 768
%%EndComments
newpath
421.45 725.45 moveto
430.61 727.02 440.33 720.67 442.24 711.51 curveto
445.46 700.24 434.34 688.51 423.01 689.92 curveto
415.77 690.57 408.36 695.45 406.94 702.94 curveto
404.14 712.78 411.03 724.32 421.45 725.45 curveto
379.83 609.14 moveto
392.92 615.30 409.21 614.30 421.31 606.29 curveto
437.22 596.10 444.66 574.70 438.30 556.89 curveto
433.23 542.87 420.58 531.78 405.85 529.09 curveto
400.67 528.33 395.34 528.18 390.16 529.00 curveto
375.45 531.74 362.96 542.93 357.93 556.93 curveto
350.67 576.47 360.86 600.56 379.83 609.14 curveto
170.07 566.38 moveto
194.11 566.34 216.91 549.97 224.86 527.32 curveto
224.23 526.90 lineto
212.27 518.67 201.29 508.95 191.72 498.02 curveto
191.48 497.76 191.01 497.24 190.77 496.97 curveto
183.85 496.98 176.92 496.90 170.00 496.94 curveto
170.19 520.09 170.06 543.23 170.07 566.38 curveto
255.88 566.43 moveto
268.66 565.87 281.64 561.95 291.56 553.66 curveto
301.63 545.30 309.61 533.90 312.14 520.90 curveto
313.92 513.07 313.18 504.99 313.31 497.03 curveto
294.15 496.99 274.98 497.15 255.82 496.83 curveto
256.01 512.45 255.95 528.07 255.92 543.68 curveto
255.83 551.27 255.89 558.85 255.88 566.43 curveto
198.65 430.96 moveto
198.30 436.75 207.27 438.82 210.23 434.27 curveto
212.10 429.46 211.81 423.58 215.80 419.74 curveto
221.42 412.96 232.77 413.01 238.78 419.24 curveto
243.77 423.61 242.28 431.18 246.16 436.26 curveto
249.84 437.34 253.85 436.45 256.29 433.36 curveto
257.06 424.15 253.37 414.71 246.37 408.64 curveto
241.91 404.53 235.95 402.57 230.03 401.80 curveto
221.43 400.89 212.71 404.53 206.67 410.58 curveto
201.33 415.91 198.80 423.53 198.65 430.96 curveto
484.71 212.52 moveto
501.89 214.61 518.97 218.54 534.85 225.53 curveto
535.17 217.67 535.32 209.75 534.56 201.90 curveto
532.55 187.08 517.68 175.93 502.99 176.83 curveto
493.55 177.20 485.24 182.82 479.14 189.69 curveto
479.77 190.83 lineto
483.75 197.29 484.85 205.05 484.71 212.52 curveto
315.28 210.74 moveto
318.33 212.12 321.79 211.05 325.01 211.15 curveto
338.31 211.01 351.61 211.21 364.91 211.17 curveto
367.40 195.29 354.94 179.19 339.10 177.19 curveto
327.71 175.16 316.11 180.86 309.30 189.91 curveto
309.87 191.00 lineto
312.10 194.98 313.55 199.36 314.34 203.85 curveto
315.06 206.10 314.23 208.64 315.28 210.74 curveto
321.93 117.11 moveto
327.32 120.96 335.01 120.87 340.71 117.75 curveto
344.14 115.87 345.52 112.00 346.01 108.33 curveto
343.47 108.27 340.92 108.24 338.38 108.21 curveto
337.79 113.37 331.45 115.28 327.41 112.78 curveto
325.41 111.67 324.95 108.22 327.17 107.09 curveto
332.49 104.36 339.26 104.98 343.95 100.92 curveto
347.95 97.58 347.86 91.16 344.76 87.24 curveto
341.70 83.57 336.57 82.50 332.01 82.47 curveto
327.19 82.53 321.81 83.89 318.82 87.97 curveto
317.16 90.02 316.95 92.74 316.55 95.23 curveto
319.09 95.26 321.63 95.26 324.17 95.25 curveto
324.60 88.59 333.09 86.69 337.90 90.01 curveto
340.04 91.62 339.59 95.12 337.18 96.23 curveto
331.91 98.93 325.22 98.53 320.66 102.67 curveto
316.41 106.47 317.45 113.92 321.93 117.11 curveto
515.44 119.43 moveto
521.94 121.12 529.63 119.30 533.76 113.74 curveto
539.02 106.71 539.18 96.15 534.04 89.01 curveto
528.19 81.02 515.17 80.29 508.14 87.09 curveto
498.68 96.32 501.79 116.08 515.44 119.43 curveto
516.34 112.46 moveto
510.02 109.09 509.62 100.04 512.15 94.10 curveto
514.49 88.02 523.87 87.20 527.45 92.52 curveto
530.49 97.38 530.54 103.96 527.88 109.00 curveto
525.79 113.02 520.31 114.33 516.34 112.46 curveto
647.90 116.08 moveto
652.11 120.84 659.72 121.09 665.02 118.08 curveto
668.91 115.94 670.75 110.92 669.28 106.74 curveto
667.91 101.24 659.90 100.32 660.27 94.00 curveto
658.05 94.01 655.82 94.01 653.61 94.02 curveto
653.76 97.02 653.95 100.41 656.42 102.51 curveto
658.45 104.75 662.23 106.36 661.79 109.94 curveto
661.94 113.23 658.03 115.03 655.33 113.58 curveto
652.87 112.59 652.56 109.73 651.94 107.51 curveto
649.46 107.51 646.99 107.51 644.52 107.54 curveto
645.10 110.54 645.66 113.80 647.90 116.08 curveto
100.69 119.25 moveto
103.32 119.26 105.95 119.25 108.59 119.22 curveto
110.42 111.03 112.31 102.85 114.26 94.69 curveto
116.48 102.86 118.38 111.10 120.60 119.26 curveto
123.04 119.26 125.49 119.26 127.93 119.25 curveto
130.05 110.93 131.98 102.56 134.14 94.24 curveto
136.08 102.58 138.08 110.91 140.05 119.25 curveto
142.62 119.26 145.19 119.26 147.76 119.25 curveto
144.54 107.31 141.49 95.31 138.09 83.43 curveto
135.51 83.09 132.90 83.26 130.31 83.27 curveto
128.25 91.49 126.20 99.70 124.15 107.91 curveto
122.14 99.69 120.16 91.47 118.14 83.26 curveto
115.47 83.26 112.81 83.25 110.14 83.23 curveto
107.01 95.25 103.79 107.23 100.69 119.25 curveto
151.51 119.25 moveto
154.17 119.26 156.83 119.26 159.49 119.25 curveto
159.50 114.67 159.49 110.09 159.50 105.50 curveto
164.25 105.50 169.00 105.50 173.75 105.50 curveto
173.75 110.09 173.75 114.67 173.75 119.25 curveto
176.42 119.26 179.08 119.25 181.75 119.24 curveto
181.75 107.25 181.75 95.25 181.75 83.25 curveto
179.08 83.26 176.42 83.26 173.75 83.25 curveto
173.75 88.42 173.75 93.58 173.75 98.75 curveto
168.99 98.75 164.23 98.77 159.48 98.72 curveto
159.51 93.56 159.49 88.41 159.50 83.25 curveto
156.83 83.26 154.15 83.26 151.48 83.28 curveto
151.53 95.27 151.48 107.26 151.51 119.25 curveto
188.75 119.25 moveto
197.75 119.25 206.75 119.26 215.75 119.24 curveto
215.74 117.00 215.74 114.75 215.74 112.50 curveto
209.41 112.51 203.08 112.51 196.75 112.50 curveto
196.75 109.92 196.75 107.34 196.75 104.75 curveto
202.58 104.75 208.42 104.75 214.25 104.75 curveto
214.25 102.67 214.25 100.60 214.25 98.51 curveto
208.41 98.50 202.58 98.52 196.75 98.49 curveto
196.75 95.67 196.75 92.84 196.75 90.00 curveto
203.17 90.00 209.58 90.01 216.00 90.00 curveto
216.00 87.76 216.00 85.51 216.00 83.25 curveto
206.92 83.25 197.84 83.26 188.76 83.25 curveto
188.74 95.25 188.75 107.25 188.75 119.25 curveto
221.24 119.22 moveto
228.16 119.19 235.09 119.41 242.01 119.15 curveto
247.89 118.85 252.36 112.55 250.77 106.87 curveto
250.41 103.86 248.15 101.69 245.62 100.31 curveto
247.31 99.13 249.25 97.90 249.74 95.73 curveto
250.83 91.63 250.41 87.28 251.64 83.18 curveto
249.05 83.25 246.46 83.26 243.87 83.26 curveto
242.81 87.47 243.69 92.39 241.03 96.04 curveto
237.59 98.26 233.12 96.91 229.26 97.25 curveto
229.25 92.59 229.25 87.92 229.25 83.25 curveto
226.58 83.26 223.92 83.26 221.25 83.25 curveto
221.24 95.24 221.27 107.23 221.24 119.22 curveto
229.25 112.98 moveto
229.25 109.67 229.25 106.34 229.25 103.02 curveto
232.80 103.07 236.40 102.71 239.92 103.29 curveto
244.09 104.28 244.24 111.73 240.00 112.68 curveto
236.46 113.33 232.83 112.93 229.25 112.98 curveto
257.51 119.25 moveto
266.50 119.25 275.50 119.25 284.49 119.25 curveto
284.49 117.01 284.49 114.76 284.50 112.51 curveto
278.16 112.50 271.83 112.51 265.50 112.50 curveto
265.50 109.92 265.50 107.34 265.50 104.75 curveto
271.33 104.75 277.17 104.75 283.00 104.75 curveto
282.99 102.67 282.99 100.59 282.99 98.50 curveto
277.16 98.51 271.33 98.51 265.50 98.50 curveto
265.49 95.67 265.49 92.84 265.50 90.00 curveto
271.92 90.00 278.33 90.01 284.75 89.99 curveto
284.75 87.75 284.74 85.51 284.75 83.25 curveto
275.67 83.25 266.59 83.27 257.52 83.24 curveto
257.49 95.24 257.50 107.25 257.51 119.25 curveto
304.00 119.25 moveto
306.67 119.26 309.33 119.26 312.00 119.25 curveto
312.00 107.25 312.00 95.25 311.99 83.25 curveto
309.33 83.26 306.67 83.26 304.01 83.25 curveto
303.99 95.25 304.00 107.25 304.00 119.25 curveto
365.51 119.25 moveto
369.21 119.26 372.91 119.26 376.61 119.25 curveto
379.52 111.08 382.08 102.78 385.11 94.65 curveto
387.91 102.81 390.45 111.06 393.12 119.26 curveto
396.82 119.25 400.53 119.25 404.25 119.25 curveto
404.25 107.25 404.26 95.25 404.24 83.25 curveto
401.74 83.26 399.25 83.26 396.76 83.25 curveto
396.74 91.85 396.75 100.45 396.75 109.05 curveto
393.77 100.45 390.87 91.82 387.87 83.23 curveto
385.86 83.25 383.87 83.26 381.88 83.26 curveto
378.88 91.75 375.96 100.27 373.02 108.79 curveto
372.97 100.28 373.02 91.76 372.99 83.25 curveto
370.50 83.26 368.00 83.26 365.51 83.25 curveto
365.49 95.25 365.50 107.25 365.51 119.25 curveto
407.05 119.27 moveto
410.00 119.26 412.96 119.25 415.93 119.26 curveto
418.74 114.50 421.55 109.75 424.40 105.01 curveto
427.15 109.78 429.97 114.52 432.78 119.25 curveto
435.70 119.26 438.61 119.26 441.54 119.25 curveto
437.26 111.79 432.49 104.60 428.42 97.03 curveto
427.99 92.46 428.36 87.85 428.25 83.26 curveto
425.58 83.26 422.92 83.26 420.25 83.25 curveto
419.66 89.17 421.94 95.92 418.04 101.03 curveto
414.32 107.08 410.73 113.20 407.05 119.27 curveto
458.51 119.25 moveto
462.18 119.25 465.86 119.25 469.54 119.29 curveto
472.65 111.26 474.78 102.83 478.19 94.93 curveto
481.02 102.98 483.45 111.16 486.12 119.26 curveto
489.82 119.25 493.53 119.25 497.25 119.25 curveto
497.25 107.25 497.26 95.25 497.24 83.25 curveto
494.74 83.26 492.24 83.26 489.75 83.25 curveto
489.73 91.84 489.77 100.42 489.73 109.00 curveto
486.76 100.41 483.87 91.80 480.86 83.23 curveto
478.86 83.25 476.87 83.26 474.88 83.26 curveto
471.91 91.75 468.90 100.22 466.11 108.77 curveto
465.89 100.27 466.05 91.76 465.99 83.25 curveto
463.50 83.26 461.00 83.26 458.51 83.24 curveto
458.49 95.25 458.50 107.25 458.51 119.25 curveto
543.23 119.21 moveto
545.82 119.25 548.43 119.26 551.04 119.26 curveto
556.06 111.24 560.99 103.16 565.99 95.11 curveto
566.01 103.16 565.99 111.21 566.00 119.25 curveto
568.50 119.26 570.99 119.26 573.49 119.25 curveto
573.51 107.25 573.49 95.26 573.50 83.26 curveto
570.88 83.26 568.25 83.26 565.64 83.26 curveto
560.71 91.36 555.72 99.41 550.76 107.48 curveto
550.73 99.40 550.75 91.33 550.75 83.25 curveto
548.24 83.26 545.75 83.26 543.25 83.25 curveto
543.23 95.24 543.28 107.22 543.23 119.21 curveto
580.51 119.25 moveto
589.50 119.25 598.50 119.26 607.49 119.25 curveto
607.49 117.01 607.49 114.76 607.50 112.51 curveto
601.16 112.50 594.83 112.51 588.50 112.50 curveto
588.49 109.92 588.49 107.34 588.50 104.75 curveto
594.33 104.75 600.16 104.75 606.00 104.75 curveto
605.99 102.67 605.99 100.59 605.99 98.50 curveto
600.16 98.51 594.33 98.51 588.50 98.50 curveto
588.49 95.67 588.49 92.84 588.50 90.00 curveto
594.91 90.00 601.33 90.01 607.75 89.99 curveto
607.74 87.75 607.74 85.51 607.75 83.25 curveto
598.67 83.25 589.59 83.25 580.51 83.25 curveto
580.50 95.25 580.50 107.25 580.51 119.25 curveto
609.30 119.26 moveto
612.25 119.26 615.21 119.25 618.17 119.25 curveto
621.01 114.53 623.76 109.75 626.65 105.06 curveto
629.43 109.80 632.23 114.52 635.02 119.25 curveto
637.94 119.26 640.87 119.26 643.81 119.25 curveto
639.51 111.79 634.73 104.59 630.67 97.01 curveto
630.23 92.45 630.61 87.84 630.50 83.26 curveto
627.83 83.26 625.16 83.26 622.50 83.25 curveto
622.39 87.91 622.74 92.57 622.35 97.20 curveto
618.33 104.73 613.60 111.89 609.30 119.26 curveto
653.00 91.00 moveto
655.66 91.01 658.33 91.01 661.00 91.00 curveto
660.99 88.42 660.99 85.84 660.99 83.25 curveto
658.33 83.26 655.66 83.26 653.01 83.25 curveto
653.00 85.84 652.99 88.42 653.00 91.00 curveto
closepath
0.102 0.129 0.176 setrgbcolor
fill
newpath
336.47 693.31 moveto
343.85 695.42 351.68 688.40 351.16 680.94 curveto
350.67 677.69 349.35 674.30 346.59 672.32 curveto
341.15 668.20 331.97 669.43 328.86 675.85 curveto
324.85 682.36 328.94 691.82 336.47 693.31 curveto
295.43 646.43 moveto
309.06 650.77 325.47 641.72 328.38 627.55 curveto
332.45 613.36 321.78 597.06 307.11 595.26 curveto
294.10 592.76 280.21 601.98 277.46 614.93 curveto
273.94 627.98 282.36 642.86 295.43 646.43 curveto
477.26 619.81 moveto
489.11 623.80 502.73 612.32 500.51 599.93 curveto
499.71 588.16 485.59 580.84 475.14 585.38 curveto
469.50 588.03 464.92 593.48 464.41 599.83 curveto
463.35 608.39 468.71 617.58 477.26 619.81 curveto
291.56 553.66 moveto
313.30 558.87 335.80 557.15 357.93 556.93 curveto
362.96 542.93 375.45 531.74 390.16 529.00 curveto
395.34 528.18 400.67 528.33 405.85 529.09 curveto
420.58 531.78 433.23 542.87 438.30 556.89 curveto
463.46 558.00 489.06 557.39 513.48 550.64 curveto
548.85 540.79 580.55 518.93 603.11 490.05 curveto
622.71 465.18 634.61 434.65 638.48 403.30 curveto
646.81 403.38 656.46 404.24 663.16 398.27 curveto
667.45 394.86 667.35 388.99 667.48 384.02 curveto
667.30 379.32 667.30 373.84 663.35 370.56 curveto
656.75 364.49 647.10 365.07 638.76 364.79 curveto
636.70 356.25 635.80 347.47 633.34 339.02 curveto
619.91 288.88 582.36 246.19 534.85 225.53 curveto
518.97 218.54 501.89 214.61 484.71 212.52 curveto
484.85 205.05 483.75 197.29 479.77 190.83 curveto
472.29 179.13 456.64 173.91 443.56 178.38 curveto
435.32 181.27 428.27 187.85 425.34 196.14 curveto
423.51 200.98 422.86 206.16 422.49 211.28 curveto
394.00 211.98 365.48 211.10 337.02 211.57 curveto
329.49 210.91 321.93 211.49 314.40 211.75 curveto
314.44 209.12 314.59 206.48 314.34 203.85 curveto
313.55 199.36 312.10 194.98 309.87 191.00 curveto
302.17 179.62 286.54 173.45 273.45 178.63 curveto
264.41 182.20 256.28 189.75 254.28 199.55 curveto
252.46 208.10 253.68 216.87 253.18 225.51 curveto
219.98 240.78 190.93 265.70 172.52 297.43 curveto
164.85 310.10 159.81 324.11 154.96 338.04 curveto
137.85 338.56 120.73 337.62 103.63 338.53 curveto
103.62 369.07 103.65 399.62 103.56 430.16 curveto
120.67 431.05 137.81 430.02 154.92 430.68 curveto
162.56 455.26 174.68 478.62 191.72 498.02 curveto
201.29 508.95 212.27 518.67 224.23 526.90 curveto
234.20 533.52 244.51 539.86 255.92 543.68 curveto
255.95 528.07 256.01 512.45 255.82 496.83 curveto
274.98 497.15 294.15 496.99 313.31 497.03 curveto
313.18 504.99 313.92 513.07 312.14 520.90 curveto
309.61 533.90 301.63 545.30 291.56 553.66 curveto
381.32 464.53 moveto
368.38 462.45 356.01 457.13 345.52 449.30 curveto
329.21 437.22 317.91 418.75 314.30 398.81 curveto
308.42 368.64 321.85 335.73 347.10 318.23 curveto
360.69 308.43 377.36 303.38 394.04 302.97 curveto
410.49 303.30 426.94 308.11 440.48 317.58 curveto
458.36 329.88 470.85 349.64 474.37 371.06 curveto
476.92 387.87 474.65 405.57 466.78 420.75 curveto
458.50 437.66 443.98 451.25 426.74 458.74 curveto
412.57 465.08 396.60 466.69 381.32 464.53 curveto
198.65 430.96 moveto
198.80 423.53 201.33 415.91 206.67 410.58 curveto
212.71 404.53 221.43 400.89 230.03 401.80 curveto
235.95 402.57 241.91 404.53 246.37 408.64 curveto
253.37 414.71 257.06 424.15 256.29 433.36 curveto
253.85 436.45 249.84 437.34 246.16 436.26 curveto
242.28 431.18 243.77 423.61 238.78 419.24 curveto
232.77 413.01 221.42 412.96 215.80 419.74 curveto
211.81 423.58 212.10 429.46 210.23 434.27 curveto
207.27 438.82 198.30 436.75 198.65 430.96 curveto
387.15 432.21 moveto
391.76 432.41 396.38 432.38 400.99 432.27 curveto
401.00 429.57 401.00 426.86 401.00 424.16 curveto
412.48 422.54 422.60 412.93 423.00 401.03 curveto
418.91 399.81 414.37 400.67 410.12 400.24 curveto
408.47 404.07 406.61 408.79 402.07 409.83 curveto
398.07 410.18 394.05 409.97 390.05 410.02 curveto
386.12 410.26 381.85 408.29 380.21 404.56 curveto
377.87 399.57 380.94 392.72 386.43 391.55 curveto
393.25 390.05 400.48 392.26 407.17 389.85 curveto
414.64 387.41 420.52 380.85 422.08 373.13 curveto
424.09 365.89 421.57 357.93 416.68 352.40 curveto
412.57 348.07 406.79 345.76 401.00 344.75 curveto
401.00 341.89 401.00 339.03 400.96 336.16 curveto
396.43 336.24 391.85 335.73 387.36 336.40 curveto
387.04 339.18 387.25 341.97 387.34 344.75 curveto
375.88 345.94 365.27 356.08 365.82 368.01 curveto
370.13 368.02 374.44 368.03 378.75 368.01 curveto
379.93 365.29 380.82 362.17 383.32 360.33 curveto
386.10 358.12 389.83 359.23 393.09 358.93 curveto
397.96 358.98 404.18 357.85 407.30 362.66 curveto
411.49 367.55 408.07 375.99 401.94 377.11 curveto
394.22 377.87 385.96 376.51 378.69 379.86 curveto
371.16 383.51 365.91 391.59 365.93 400.00 curveto
365.32 408.53 370.35 417.20 378.03 420.95 curveto
380.95 422.46 384.17 423.18 387.28 424.13 curveto
387.21 426.83 387.17 429.52 387.15 432.21 curveto
100.25 70.00 moveto
105.75 70.00 111.25 70.00 116.75 70.00 curveto
116.75 68.76 116.75 67.51 116.75 66.25 curveto
114.75 66.26 112.75 66.26 110.75 66.25 curveto
110.75 60.83 110.75 55.42 110.75 50.00 curveto
109.25 50.01 107.75 50.01 106.25 50.00 curveto
106.25 55.42 106.25 60.83 106.25 66.25 curveto
104.25 66.26 102.25 66.26 100.25 66.25 curveto
100.25 67.51 100.25 68.76 100.25 70.00 curveto
119.25 70.00 moveto
120.75 70.01 122.25 70.01 123.75 70.00 curveto
123.75 67.42 123.75 64.84 123.75 62.25 curveto
126.33 62.26 128.92 62.26 131.50 62.25 curveto
131.50 64.84 131.50 67.42 131.50 70.00 curveto
133.00 70.01 134.50 70.01 136.00 70.00 curveto
136.00 63.33 136.00 56.65 136.00 49.98 curveto
134.49 50.01 132.98 50.03 131.47 50.05 curveto
131.51 52.87 131.50 55.69 131.50 58.50 curveto
128.92 58.51 126.33 58.51 123.75 58.50 curveto
123.75 55.67 123.75 52.84 123.75 50.00 curveto
122.25 50.01 120.75 50.01 119.25 50.00 curveto
119.25 56.67 119.25 63.34 119.25 70.00 curveto
140.00 70.00 moveto
145.00 70.00 150.00 70.00 155.00 70.00 curveto
155.00 68.76 155.00 67.51 155.00 66.25 curveto
151.50 66.25 148.00 66.25 144.50 66.25 curveto
144.50 64.84 144.50 63.43 144.50 62.00 curveto
147.75 62.00 151.00 62.01 154.25 62.00 curveto
154.25 61.13 154.25 59.38 154.25 58.50 curveto
151.00 58.51 147.75 58.50 144.50 58.50 curveto
144.50 56.93 144.50 55.34 144.50 53.75 curveto
148.08 53.76 151.67 53.76 155.25 53.75 curveto
155.25 52.51 155.25 51.26 155.25 50.00 curveto
150.17 50.00 145.08 50.00 140.00 50.00 curveto
140.00 56.67 140.00 63.34 140.00 70.00 curveto
166.04 62.08 moveto
164.28 65.30 166.69 69.43 170.13 70.11 curveto
174.68 71.72 180.50 69.29 181.07 64.12 curveto
179.66 64.07 178.24 64.02 176.83 63.98 curveto
176.19 68.09 168.60 68.17 169.82 63.38 curveto
172.92 62.25 176.35 61.96 179.23 60.30 curveto
182.07 58.54 182.20 54.31 180.09 51.92 curveto
175.37 47.32 164.82 49.16 164.54 56.69 curveto
165.89 56.74 167.24 56.79 168.60 56.82 curveto
169.19 53.06 174.07 51.77 176.80 54.09 curveto
177.91 55.36 177.08 57.32 175.48 57.58 curveto
172.30 58.97 167.97 58.73 166.04 62.08 curveto
184.25 70.00 moveto
185.75 70.01 187.25 70.01 188.75 70.00 curveto
188.75 63.34 188.75 56.67 188.75 50.00 curveto
187.25 50.01 185.75 50.01 184.25 50.00 curveto
184.25 56.67 184.25 63.34 184.25 70.00 curveto
192.50 70.00 moveto
194.57 70.01 196.64 70.01 198.71 70.00 curveto
200.23 65.46 201.70 60.90 203.33 56.39 curveto
203.49 56.48 203.80 56.65 203.96 56.73 curveto
204.62 61.32 206.56 65.57 207.81 70.00 curveto
209.87 70.01 211.93 70.01 214.00 70.00 curveto
214.00 63.34 214.00 56.67 214.00 50.00 curveto
212.66 50.01 211.33 50.01 210.00 50.00 curveto
209.99 54.77 210.05 59.55 209.89 64.31 curveto
208.34 59.51 206.66 54.75 204.96 50.00 curveto
204.10 50.00 202.40 50.00 201.55 50.00 curveto
199.86 54.72 198.18 59.44 196.51 64.16 curveto
196.49 59.45 196.50 54.72 196.50 50.00 curveto
195.50 50.00 193.50 50.00 192.50 50.00 curveto
192.50 56.67 192.50 63.34 192.50 70.00 curveto
218.00 70.00 moveto
221.97 69.83 226.03 70.44 229.93 69.59 curveto
234.61 68.26 235.42 61.23 231.59 58.48 curveto
228.93 56.66 225.52 57.40 222.50 57.24 curveto
222.50 54.83 222.50 52.42 222.50 50.00 curveto
221.00 50.01 219.50 50.01 218.00 50.00 curveto
218.00 56.67 218.00 63.33 218.00 70.00 curveto
222.51 66.54 moveto
222.50 64.61 222.50 62.66 222.50 60.71 curveto
225.05 60.78 230.28 59.98 229.75 64.04 curveto
229.34 67.44 224.86 66.29 222.51 66.54 curveto
236.50 70.00 moveto
238.00 70.01 239.50 70.01 241.00 70.00 curveto
241.00 64.59 241.00 59.17 241.00 53.75 curveto
244.25 53.76 247.50 53.76 250.75 53.75 curveto
250.75 52.51 250.75 51.26 250.75 50.00 curveto
246.00 50.00 241.25 50.00 236.50 50.00 curveto
236.50 56.67 236.50 63.34 236.50 70.00 curveto
253.25 70.00 moveto
258.25 70.00 263.25 70.00 268.25 70.00 curveto
268.25 68.76 268.25 67.51 268.25 66.25 curveto
264.75 66.25 261.25 66.25 257.75 66.25 curveto
257.75 64.84 257.75 63.43 257.75 62.00 curveto
261.00 62.00 264.25 62.00 267.50 62.00 curveto
267.50 61.13 267.50 59.38 267.50 58.50 curveto
264.25 58.51 261.00 58.51 257.75 58.50 curveto
257.75 56.93 257.75 55.34 257.75 53.75 curveto
261.33 53.76 264.92 53.76 268.50 53.75 curveto
268.50 52.81 268.50 50.94 268.50 50.00 curveto
263.41 50.00 258.33 50.00 253.25 50.00 curveto
253.25 56.67 253.25 63.34 253.25 70.00 curveto
273.71 69.26 moveto
278.31 72.18 286.07 70.16 286.51 64.05 curveto
285.12 64.03 283.73 64.01 282.35 64.00 curveto
281.92 68.08 273.85 68.09 275.50 63.57 curveto
278.63 61.70 282.82 62.21 285.56 59.60 curveto
288.34 56.94 286.98 51.72 283.44 50.44 curveto
278.27 47.86 270.48 50.20 269.90 56.60 curveto
271.31 56.70 272.73 56.75 274.15 56.79 curveto
274.18 52.02 283.78 51.37 282.57 56.58 curveto
279.56 59.08 274.84 58.20 272.14 61.22 curveto
270.00 63.61 270.94 67.79 273.71 69.26 curveto
287.75 70.00 moveto
293.25 70.00 298.75 70.00 304.25 70.00 curveto
304.25 69.06 304.25 67.19 304.25 66.25 curveto
302.25 66.26 300.25 66.25 298.25 66.25 curveto
298.25 60.83 298.25 55.42 298.25 50.00 curveto
296.75 50.01 295.25 50.01 293.75 50.00 curveto
293.75 55.42 293.75 60.84 293.75 66.25 curveto
291.74 66.26 289.74 66.26 287.75 66.25 curveto
287.75 67.19 287.75 69.06 287.75 70.00 curveto
314.50 70.00 moveto
319.50 70.00 324.50 70.01 329.50 70.00 curveto
329.50 68.76 329.50 67.51 329.50 66.25 curveto
326.00 66.25 322.50 66.25 319.00 66.25 curveto
319.00 64.84 319.00 63.43 319.00 62.00 curveto
322.25 62.00 325.50 62.01 328.76 62.00 curveto
328.75 60.84 328.75 59.67 328.75 58.50 curveto
325.50 58.51 322.25 58.51 319.00 58.50 curveto
319.00 56.93 319.00 55.34 319.00 53.75 curveto
322.48 53.76 325.95 53.73 329.43 53.79 curveto
329.77 52.89 329.79 50.26 331.48 51.05 curveto
333.11 54.47 336.05 57.28 337.34 60.78 curveto
335.35 63.90 333.17 66.89 331.17 70.00 curveto
332.84 70.01 334.51 70.01 336.19 70.01 curveto
337.53 67.89 338.84 65.76 340.17 63.64 curveto
341.51 65.77 342.85 67.89 344.23 69.99 curveto
345.82 70.01 347.42 70.01 349.02 70.00 curveto
346.87 66.83 344.75 63.63 342.63 60.44 curveto
344.93 56.95 347.26 53.48 349.57 50.00 curveto
347.82 50.01 346.07 50.01 344.33 50.00 curveto
342.91 52.32 341.45 54.60 340.00 56.89 curveto
338.47 54.59 336.99 52.27 335.50 49.95 curveto
333.98 49.99 332.46 50.05 330.94 50.16 curveto
325.47 49.89 319.98 50.04 314.50 50.00 curveto
314.50 56.67 314.50 63.34 314.50 70.00 curveto
351.50 70.00 moveto
355.31 69.87 359.18 70.33 362.96 69.73 curveto
367.51 68.80 368.99 62.48 365.92 59.24 curveto
363.39 56.48 359.32 57.41 356.00 57.24 curveto
356.00 54.83 356.00 52.42 356.00 50.00 curveto
354.50 50.01 353.00 50.01 351.50 50.00 curveto
351.50 56.67 351.50 63.33 351.50 70.00 curveto
356.01 66.53 moveto
356.00 64.60 356.00 62.67 356.00 60.72 curveto
358.59 60.77 363.79 60.00 363.28 64.07 curveto
362.74 67.42 358.41 66.32 356.01 66.53 curveto
370.25 70.00 moveto
375.25 70.00 380.25 70.00 385.25 70.00 curveto
385.25 68.76 385.24 67.51 385.25 66.25 curveto
381.75 66.25 378.25 66.25 374.75 66.25 curveto
374.75 64.84 374.75 63.42 374.75 62.00 curveto
378.00 62.00 381.25 62.01 384.50 62.00 curveto
384.50 61.13 384.50 59.38 384.50 58.50 curveto
381.25 58.51 378.00 58.51 374.75 58.50 curveto
374.75 56.93 374.75 55.34 374.75 53.75 curveto
378.33 53.76 381.91 53.76 385.50 53.75 curveto
385.49 52.51 385.49 51.26 385.50 50.00 curveto
380.41 50.00 375.33 50.00 370.25 50.00 curveto
370.25 56.67 370.25 63.34 370.25 70.00 curveto
388.25 70.01 moveto
389.71 70.01 391.18 70.00 392.65 69.98 curveto
395.42 65.52 398.22 61.06 401.00 56.60 curveto
401.00 61.07 401.00 65.54 401.00 70.00 curveto
402.33 70.01 403.66 70.01 405.00 70.00 curveto
405.00 63.34 405.00 56.67 405.00 50.00 curveto
403.54 50.01 402.08 50.01 400.63 50.00 curveto
397.81 54.45 395.09 58.97 392.27 63.42 curveto
392.24 58.95 392.25 54.47 392.25 50.00 curveto
390.91 50.01 389.58 50.01 388.25 50.00 curveto
388.25 56.67 388.25 63.34 388.25 70.01 curveto
409.60 61.58 moveto
407.64 64.28 409.10 68.38 412.08 69.61 curveto
416.71 72.03 423.87 69.86 424.25 64.03 curveto
422.78 64.02 421.31 64.00 419.85 63.99 curveto
419.66 64.56 419.28 65.71 419.09 66.28 curveto
416.88 67.38 412.48 67.57 412.94 64.02 curveto
415.88 61.40 420.71 62.46 423.46 59.43 curveto
425.95 56.81 424.76 51.98 421.49 50.58 curveto
416.37 47.80 407.99 50.05 407.75 56.73 curveto
409.14 56.75 410.53 56.76 411.93 56.75 curveto
412.23 52.31 420.30 51.29 420.63 56.00 curveto
417.92 59.44 412.20 57.89 409.60 61.58 curveto
427.25 70.00 moveto
432.25 70.00 437.25 70.00 442.25 70.00 curveto
442.25 68.76 442.24 67.51 442.25 66.25 curveto
438.75 66.25 435.25 66.25 431.75 66.25 curveto
431.75 64.84 431.75 63.43 431.75 62.00 curveto
435.00 62.00 438.25 62.01 441.50 62.00 curveto
441.50 61.13 441.50 59.38 441.50 58.50 curveto
438.25 58.51 435.00 58.51 431.75 58.50 curveto
431.75 56.93 431.75 55.34 431.75 53.75 curveto
435.33 53.76 438.91 53.75 442.50 53.75 curveto
442.49 52.51 442.49 51.26 442.50 50.00 curveto
437.41 50.00 432.33 50.00 427.25 50.00 curveto
427.25 56.67 427.25 63.34 427.25 70.00 curveto
451.50 70.00 moveto
457.00 70.00 462.50 70.00 468.00 70.00 curveto
467.99 68.76 467.99 67.51 468.00 66.25 curveto
465.99 66.26 463.99 66.26 462.00 66.25 curveto
462.00 60.84 462.00 55.42 462.00 50.00 curveto
460.49 50.01 458.99 50.01 457.50 50.00 curveto
457.50 55.42 457.50 60.83 457.50 66.25 curveto
455.49 66.26 453.49 66.26 451.50 66.25 curveto
451.49 67.51 451.49 68.76 451.50 70.00 curveto
470.50 70.00 moveto
474.65 69.89 478.83 70.27 482.96 69.79 curveto
487.69 68.78 488.39 61.86 484.31 59.52 curveto
487.32 57.26 486.53 53.25 487.25 50.00 curveto
485.83 50.01 484.42 50.01 483.01 50.00 curveto
482.66 52.28 482.81 54.68 481.88 56.82 curveto
479.97 58.43 477.27 57.53 475.01 57.77 curveto
474.99 55.19 475.00 52.60 475.00 50.00 curveto
473.49 50.01 471.99 50.01 470.50 50.00 curveto
470.50 56.67 470.50 63.34 470.50 70.00 curveto
475.01 66.52 moveto
474.99 64.69 475.00 62.84 475.00 60.99 curveto
477.01 61.02 479.04 60.90 481.05 61.16 curveto
483.07 61.96 483.10 65.55 481.07 66.35 curveto
479.06 66.61 477.02 66.51 475.01 66.52 curveto
496.13 70.00 moveto
497.64 70.01 499.15 70.01 500.68 70.00 curveto
503.16 63.33 505.57 56.63 508.17 49.99 curveto
506.61 50.01 505.07 50.01 503.53 50.01 curveto
503.02 51.51 502.54 53.00 502.06 54.49 curveto
499.54 54.51 497.04 54.51 494.53 54.49 curveto
494.03 53.00 493.53 51.50 493.03 50.00 curveto
491.54 50.01 490.05 50.01 488.56 50.00 curveto
491.11 56.66 493.62 63.33 496.13 70.00 curveto
495.71 57.75 moveto
497.42 57.76 499.14 57.77 500.86 57.77 curveto
500.06 60.22 499.24 62.67 498.42 65.11 curveto
497.46 62.68 496.59 60.22 495.71 57.75 curveto
509.03 61.15 moveto
509.25 66.62 514.35 71.26 519.87 70.48 curveto
523.92 70.37 526.94 67.09 527.75 63.31 curveto
526.37 63.28 525.00 63.26 523.64 63.23 curveto
522.50 66.31 518.77 67.85 515.94 65.97 curveto
512.50 62.98 512.49 56.21 516.52 53.73 curveto
519.75 52.02 523.16 54.41 523.71 57.76 curveto
525.10 57.76 526.50 57.75 527.92 57.73 curveto
527.30 53.32 523.83 49.21 519.06 49.48 curveto
512.84 49.01 508.09 55.26 509.03 61.15 curveto
530.75 70.00 moveto
532.24 70.01 533.75 70.01 535.26 70.00 curveto
535.26 67.23 535.26 64.45 535.17 61.67 curveto
537.84 64.43 540.43 67.25 543.10 70.01 curveto
544.94 70.01 546.77 70.01 548.62 70.00 curveto
545.99 67.37 543.36 64.74 540.73 62.11 curveto
543.59 58.08 546.45 54.05 549.29 50.00 curveto
547.44 50.01 545.61 50.01 543.77 50.00 curveto
541.77 52.96 539.80 55.94 537.81 58.90 curveto
536.96 58.09 536.11 57.27 535.27 56.43 curveto
535.25 54.30 535.24 52.15 535.25 50.00 curveto
533.74 50.01 532.24 50.01 530.75 50.00 curveto
530.75 56.67 530.75 63.34 530.75 70.00 curveto
551.00 70.00 moveto
552.49 70.01 553.99 70.01 555.50 70.00 curveto
555.50 63.34 555.50 56.67 555.50 50.00 curveto
553.99 50.01 552.49 50.01 551.00 50.00 curveto
551.00 56.67 551.00 63.34 551.00 70.00 curveto
559.25 70.01 moveto
560.71 70.01 562.18 70.00 563.65 69.98 curveto
566.42 65.51 569.22 61.06 572.00 56.59 curveto
572.00 61.07 572.00 65.53 572.00 70.00 curveto
573.33 70.01 574.66 70.01 576.00 70.00 curveto
576.00 63.34 576.00 56.67 576.00 50.00 curveto
574.54 50.01 573.08 50.01 571.63 50.00 curveto
568.81 54.45 566.09 58.97 563.27 63.42 curveto
563.24 58.95 563.25 54.47 563.25 50.00 curveto
561.91 50.01 560.57 50.01 559.25 50.00 curveto
559.25 56.67 559.25 63.34 559.25 70.01 curveto
585.28 69.87 moveto
590.24 72.02 596.54 69.04 597.58 63.61 curveto
596.51 63.56 594.36 63.47 593.28 63.42 curveto
592.85 64.26 592.43 65.10 592.02 65.93 curveto
589.59 67.12 586.02 67.20 584.62 64.45 curveto
582.20 60.63 583.45 53.10 588.98 53.20 curveto
591.64 52.96 593.38 55.09 594.06 57.41 curveto
592.45 57.47 590.84 57.51 589.25 57.52 curveto
589.24 58.61 589.24 59.68 589.25 60.75 curveto
592.08 60.76 594.91 60.76 597.75 60.75 curveto
597.75 57.17 597.75 53.59 597.75 50.00 curveto
597.03 50.00 595.58 50.00 594.85 50.00 curveto
594.82 50.47 594.78 51.43 594.75 51.91 curveto
591.31 49.00 586.05 48.59 582.55 51.64 curveto
576.84 56.34 578.05 67.31 585.28 69.87 curveto
614.56 69.95 moveto
616.09 69.99 617.62 70.02 619.17 70.03 curveto
621.66 63.35 624.07 56.64 626.67 50.00 curveto
625.12 50.01 623.58 50.01 622.05 50.00 curveto
621.54 51.51 621.03 53.01 620.53 54.50 curveto
618.02 54.51 615.52 54.51 613.02 54.50 curveto
612.54 53.04 612.08 51.56 611.62 50.08 curveto
610.09 50.04 608.56 50.01 607.05 49.97 curveto
609.57 56.62 612.15 63.25 614.56 69.95 curveto
616.85 65.11 moveto
615.97 62.66 615.10 60.20 614.18 57.75 curveto
615.90 57.76 617.64 57.76 619.37 57.76 curveto
618.55 60.23 617.73 62.68 616.85 65.11 curveto
628.25 70.00 moveto
632.13 69.83 636.09 70.42 639.93 69.65 curveto
644.61 68.55 645.75 61.71 642.16 58.75 curveto
639.54 56.58 635.87 57.40 632.75 57.24 curveto
632.74 54.83 632.75 52.42 632.75 50.00 curveto
631.24 50.01 629.74 50.01 628.25 50.00 curveto
628.25 56.67 628.25 63.33 628.25 70.00 curveto
632.75 66.53 moveto
632.74 64.60 632.74 62.66 632.75 60.71 curveto
635.30 60.79 640.50 59.98 640.00 64.01 curveto
639.57 67.41 635.16 66.33 632.75 66.53 curveto
647.00 70.00 moveto
650.97 69.82 655.04 70.45 658.96 69.59 curveto
663.62 68.23 664.41 61.19 660.57 58.46 curveto
657.90 56.66 654.51 57.40 651.50 57.24 curveto
651.50 54.83 651.49 52.42 651.50 50.00 curveto
649.99 50.01 648.49 50.01 647.00 50.00 curveto
647.00 56.67 647.00 63.33 647.00 70.00 curveto
651.51 66.54 moveto
651.49 64.61 651.49 62.66 651.50 60.71 curveto
654.05 60.78 659.28 59.99 658.75 64.04 curveto
658.34 67.44 653.85 66.29 651.51 66.54 curveto
665.48 70.00 moveto
666.91 70.01 668.33 70.01 669.77 69.99 curveto
669.97 65.30 669.25 60.64 668.65 56.00 curveto
668.13 56.00 667.10 56.00 666.58 56.00 curveto
665.99 60.65 665.27 65.30 665.48 70.00 curveto
665.50 54.25 moveto
666.99 54.26 668.49 54.26 670.00 54.25 curveto
669.99 52.84 669.99 51.42 670.00 50.00 curveto
668.49 50.01 666.99 50.01 665.49 50.01 curveto
665.49 51.44 665.50 52.84 665.50 54.25 curveto
closepath
0.996 0.996 0.996 setrgbcolor
fill
newpath
381.32 464.53 moveto
396.60 466.69 412.57 465.08 426.74 458.74 curveto
443.98 451.25 458.50 437.66 466.78 420.75 curveto
474.65 405.57 476.92 387.87 474.37 371.06 curveto
470.85 349.64 458.36 329.88 440.48 317.58 curveto
426.94 308.11 410.49 303.30 394.04 302.97 curveto
377.36 303.38 360.69 308.43 347.10 318.23 curveto
321.85 335.73 308.42 368.64 314.30 398.81 curveto
317.91 418.75 329.21 437.22 345.52 449.30 curveto
356.01 457.13 368.38 462.45 381.32 464.53 curveto
387.15 432.21 moveto
387.17 429.52 387.21 426.83 387.28 424.13 curveto
384.17 423.18 380.95 422.46 378.03 420.95 curveto
370.35 417.20 365.32 408.53 365.93 400.00 curveto
365.91 391.59 371.16 383.51 378.69 379.86 curveto
385.96 376.51 394.22 377.87 401.94 377.11 curveto
408.07 375.99 411.49 367.55 407.30 362.66 curveto
404.18 357.85 397.96 358.98 393.09 358.93 curveto
389.83 359.23 386.10 358.12 383.32 360.33 curveto
380.82 362.17 379.93 365.29 378.75 368.01 curveto
374.44 368.03 370.13 368.02 365.82 368.01 curveto
365.27 356.08 375.88 345.94 387.34 344.75 curveto
387.25 341.97 387.04 339.18 387.36 336.40 curveto
391.85 335.73 396.43 336.24 400.96 336.16 curveto
401.00 339.03 401.00 341.89 401.00 344.75 curveto
406.79 345.76 412.57 348.07 416.68 352.40 curveto
421.57 357.93 424.09 365.89 422.08 373.13 curveto
420.52 380.85 414.64 387.41 407.17 389.85 curveto
400.48 392.26 393.25 390.05 386.43 391.55 curveto
380.94 392.72 377.87 399.57 380.21 404.56 curveto
381.85 408.29 386.12 410.26 390.05 410.02 curveto
394.05 409.97 398.07 410.18 402.07 409.83 curveto
406.61 408.79 408.47 404.07 410.12 400.24 curveto
414.37 400.67 418.91 399.81 423.00 401.03 curveto
422.60 412.93 412.48 422.54 401.00 424.16 curveto
401.00 426.86 401.00 429.57 400.99 432.27 curveto
396.38 432.38 391.76 432.41 387.15 432.21 curveto
closepath
0.643 0.737 0.059 setrgbcolor
fill
%%EOF
