%!PS-Adobe-3.0 EPSF-3.0
%%CreationDate: Mon Nov  6 11:28:48 2017
%%LanguageLevel: 3
%%BoundingBox: 0 0 1024 1024
%%EndComments
newpath
500.35 861.68 moveto
524.56 876.02 558.12 873.18 578.69 853.63 curveto
598.19 836.49 605.58 807.35 597.27 782.86 curveto
591.48 766.11 578.54 752.14 562.61 744.49 curveto
551.00 738.79 537.70 736.98 524.92 738.53 curveto
500.75 741.87 479.34 759.74 471.46 782.79 curveto
461.00 811.47 474.04 846.39 500.35 861.68 curveto
177.94 797.65 moveto
215.40 797.63 251.74 772.06 263.40 736.29 curveto
244.59 723.24 227.25 708.04 212.05 690.90 curveto
211.25 689.87 210.22 689.34 208.97 689.33 curveto
198.61 688.99 188.24 689.16 177.88 689.13 curveto
177.91 725.30 177.96 761.48 177.94 797.65 curveto
312.00 797.80 moveto
332.99 796.75 354.52 790.20 370.19 775.67 curveto
383.08 764.81 393.28 750.55 398.23 734.35 curveto
402.81 719.80 402.33 704.35 402.10 689.29 curveto
372.04 689.24 341.98 689.43 311.93 688.92 curveto
312.33 713.34 312.22 737.76 312.04 762.17 curveto
311.93 774.05 311.96 785.93 312.00 797.80 curveto
222.45 586.89 moveto
222.97 595.45 236.09 598.48 240.71 591.51 curveto
243.90 584.20 243.41 575.24 249.14 569.10 curveto
257.93 558.14 276.24 558.19 285.69 568.27 curveto
292.73 574.99 290.47 586.21 296.45 593.53 curveto
301.51 597.66 308.36 594.31 312.64 590.66 curveto
314.51 575.80 308.34 560.34 296.94 550.68 curveto
289.53 544.14 279.69 541.02 269.98 540.21 curveto
256.57 539.38 243.15 545.31 234.11 555.11 curveto
226.16 563.58 222.47 575.44 222.45 586.89 curveto
669.36 244.90 moveto
696.36 248.30 723.17 254.46 748.20 265.32 curveto
748.00 251.19 749.59 236.82 746.44 222.90 curveto
741.26 203.78 722.47 189.99 702.96 188.94 curveto
686.64 187.88 671.17 196.87 661.06 209.18 curveto
660.98 209.79 lineto
667.82 220.10 669.46 232.79 669.36 244.90 curveto
404.07 243.71 moveto
429.90 242.84 455.74 243.35 481.57 243.43 curveto
483.92 235.06 482.49 225.96 479.10 218.07 curveto
472.46 202.90 457.74 191.19 441.12 189.36 curveto
425.63 187.08 409.55 193.62 399.17 205.15 curveto
397.86 206.78 395.90 208.25 395.84 210.50 curveto
401.68 220.53 403.88 232.22 404.07 243.71 curveto
closepath
0.102 0.129 0.176 setrgbcolor
fill
newpath
369.32 778.15 moveto
402.82 785.73 437.41 783.44 471.46 782.79 curveto
479.34 759.74 500.75 741.87 524.92 738.53 curveto
537.70 736.98 551.00 738.79 562.61 744.49 curveto
578.54 752.14 591.48 766.11 597.27 782.86 curveto
626.51 784.12 655.96 783.95 684.94 779.40 curveto
753.11 769.13 815.66 730.01 857.09 675.24 curveto
886.29 636.98 903.98 590.53 909.93 542.90 curveto
923.15 543.09 938.42 544.27 948.93 534.64 curveto
956.86 526.96 955.25 514.91 954.74 504.92 curveto
954.77 496.92 948.90 490.03 941.81 486.96 curveto
931.95 482.51 920.89 483.05 910.34 482.59 curveto
907.16 468.79 905.46 454.66 901.51 441.03 curveto
880.18 363.45 822.03 297.14 748.20 265.32 curveto
723.17 254.46 696.36 248.30 669.36 244.90 curveto
669.46 232.79 667.82 220.10 660.98 209.79 curveto
646.27 186.82 610.36 181.78 590.10 200.19 curveto
577.39 210.33 573.18 227.26 572.34 242.79 curveto
542.09 243.76 511.82 242.61 481.57 243.43 curveto
455.74 243.35 429.90 242.84 404.07 243.71 curveto
403.88 232.22 401.68 220.53 395.84 210.50 curveto
388.39 199.34 376.00 191.99 362.91 189.55 curveto
339.63 185.33 314.46 201.73 309.39 224.94 curveto
306.94 238.16 308.45 251.66 307.86 265.01 curveto
278.74 278.44 251.70 296.49 228.45 318.60 curveto
205.71 340.18 186.73 365.77 172.88 393.90 curveto
165.68 409.07 159.78 424.82 154.50 440.74 curveto
127.71 441.76 100.87 440.25 74.08 441.62 curveto
74.04 489.37 74.06 537.12 74.07 584.88 curveto
100.80 586.12 127.55 584.73 154.28 585.66 curveto
166.37 624.04 185.05 660.82 212.05 690.90 curveto
227.25 708.04 244.59 723.24 263.40 736.29 curveto
278.51 746.78 294.57 756.20 312.04 762.17 curveto
312.22 737.76 312.33 713.34 311.93 688.92 curveto
341.98 689.43 372.04 689.24 402.10 689.29 curveto
402.33 704.35 402.81 719.80 398.23 734.35 curveto
393.28 750.55 383.08 764.81 370.19 775.67 curveto
369.97 776.29 369.54 777.53 369.32 778.15 curveto
518.61 640.22 moveto
475.92 637.55 435.64 611.13 415.80 573.29 curveto
407.34 557.50 402.34 539.92 401.01 522.08 curveto
400.92 516.04 400.94 510.01 401.02 503.97 curveto
402.59 483.75 408.97 463.90 419.59 446.61 curveto
438.16 415.80 470.52 393.94 505.91 387.77 curveto
515.83 385.68 525.96 385.92 536.04 386.00 curveto
564.51 387.72 592.29 399.32 613.49 418.42 curveto
639.81 441.92 655.42 476.75 655.95 511.99 curveto
655.94 546.93 641.43 581.83 615.92 605.84 curveto
590.21 630.22 553.94 643.24 518.61 640.22 curveto
222.45 586.89 moveto
222.47 575.44 226.16 563.58 234.11 555.11 curveto
243.15 545.31 256.57 539.38 269.98 540.21 curveto
279.69 541.02 289.53 544.14 296.94 550.68 curveto
308.34 560.34 314.51 575.80 312.64 590.66 curveto
308.36 594.31 301.51 597.66 296.45 593.53 curveto
290.47 586.21 292.73 574.99 285.69 568.27 curveto
276.24 558.19 257.93 558.14 249.14 569.10 curveto
243.41 575.24 243.90 584.20 240.71 591.51 curveto
236.09 598.48 222.97 595.45 222.45 586.89 curveto
closepath
0.878 0.867 0.867 setrgbcolor
fill
newpath
518.61 640.22 moveto
553.94 643.24 590.21 630.22 615.92 605.84 curveto
641.43 581.83 655.94 546.93 655.95 511.99 curveto
655.42 476.75 639.81 441.92 613.49 418.42 curveto
592.29 399.32 564.51 387.72 536.04 386.00 curveto
525.96 385.92 515.83 385.68 505.91 387.77 curveto
470.52 393.94 438.16 415.80 419.59 446.61 curveto
408.97 463.90 402.59 483.75 401.02 503.97 curveto
400.94 510.01 400.92 516.04 401.01 522.08 curveto
402.34 539.92 407.34 557.50 415.80 573.29 curveto
435.64 611.13 475.92 637.55 518.61 640.22 curveto
517.92 587.92 moveto
517.87 583.60 518.07 579.27 517.86 574.94 curveto
515.11 573.67 511.72 573.56 508.84 572.37 curveto
498.45 569.21 489.80 561.01 486.30 550.70 curveto
480.37 534.85 487.65 515.43 502.59 507.46 curveto
513.44 501.46 526.23 503.43 538.09 502.72 curveto
545.68 502.57 551.80 495.40 551.97 488.04 curveto
552.43 481.49 547.41 475.43 541.25 473.69 curveto
534.63 471.80 527.71 473.11 520.97 473.08 curveto
518.08 473.11 514.96 472.79 512.43 474.47 curveto
507.71 477.29 505.44 482.64 503.76 487.62 curveto
497.13 487.63 490.50 487.57 483.87 487.65 curveto
483.92 469.22 500.08 453.48 517.98 451.53 curveto
518.11 447.24 517.90 442.95 517.90 438.65 curveto
524.74 438.64 531.58 438.65 538.42 438.64 curveto
538.42 442.97 538.40 447.29 538.44 451.62 curveto
549.55 453.78 561.08 458.77 566.99 468.97 curveto
577.20 484.73 572.00 508.02 555.93 517.80 curveto
544.72 525.29 530.74 522.91 518.06 523.85 curveto
507.51 524.03 501.12 537.75 506.65 546.35 curveto
509.69 551.63 516.09 553.98 521.95 553.77 curveto
528.66 553.59 535.47 554.05 542.11 552.87 curveto
548.24 550.83 550.74 544.22 553.17 538.83 curveto
559.68 538.86 566.20 538.93 572.72 538.94 curveto
572.39 557.28 556.47 573.12 538.46 574.74 curveto
538.37 579.13 538.43 583.53 538.42 587.92 curveto
531.59 587.92 524.75 587.93 517.92 587.92 curveto
closepath
0.451 0.533 0.039 setrgbcolor
fill
newpath
517.92 587.92 moveto
524.75 587.93 531.59 587.92 538.42 587.92 curveto
538.43 583.53 538.37 579.13 538.46 574.74 curveto
556.47 573.12 572.39 557.28 572.72 538.94 curveto
566.20 538.93 559.68 538.86 553.17 538.83 curveto
550.74 544.22 548.24 550.83 542.11 552.87 curveto
535.47 554.05 528.66 553.59 521.95 553.77 curveto
516.09 553.98 509.69 551.63 506.65 546.35 curveto
501.12 537.75 507.51 524.03 518.06 523.85 curveto
530.74 522.91 544.72 525.29 555.93 517.80 curveto
572.00 508.02 577.20 484.73 566.99 468.97 curveto
561.08 458.77 549.55 453.78 538.44 451.62 curveto
538.40 447.29 538.42 442.97 538.42 438.64 curveto
531.58 438.65 524.74 438.64 517.90 438.65 curveto
517.90 442.95 518.11 447.24 517.98 451.53 curveto
500.08 453.48 483.92 469.22 483.87 487.65 curveto
490.50 487.57 497.13 487.63 503.76 487.62 curveto
505.44 482.64 507.71 477.29 512.43 474.47 curveto
514.96 472.79 518.08 473.11 520.97 473.08 curveto
527.71 473.11 534.63 471.80 541.25 473.69 curveto
547.41 475.43 552.43 481.49 551.97 488.04 curveto
551.80 495.40 545.68 502.57 538.09 502.72 curveto
526.23 503.43 513.44 501.46 502.59 507.46 curveto
487.65 515.43 480.37 534.85 486.30 550.70 curveto
489.80 561.01 498.45 569.21 508.84 572.37 curveto
511.72 573.56 515.11 573.67 517.86 574.94 curveto
518.07 579.27 517.87 583.60 517.92 587.92 curveto
closepath
1.000 1.000 1.000 setrgbcolor
fill
%%EOF
